…
There appears to be some really expensive listings\! What are they?

``` r
listings %>%
  arrange(desc(price)) %>%
  select(price, neighbourhood, accommodates, listing_url)
```

    ## # A tibble: 13,245 x 4
    ##    price neighbourhood accommodates listing_url                          
    ##    <dbl> <chr>                <dbl> <chr>                                
    ##  1   999 West End                 4 https://www.airbnb.com/rooms/5508519 
    ##  2   999 <NA>                     2 https://www.airbnb.com/rooms/10432576
    ##  3   999 <NA>                     1 https://www.airbnb.com/rooms/13930036
    ##  4   999 <NA>                     2 https://www.airbnb.com/rooms/18882037
    ##  5   999 <NA>                     2 https://www.airbnb.com/rooms/18914400
    ##  6   999 <NA>                     2 https://www.airbnb.com/rooms/19179102
    ##  7   999 Cannonmills              2 https://www.airbnb.com/rooms/24478301
    ##  8   999 New Town                 8 https://www.airbnb.com/rooms/33066249
    ##  9   999 New Town                10 https://www.airbnb.com/rooms/33067122
    ## 10   999 Old Town                12 https://www.airbnb.com/rooms/33067228
    ## # … with 13,235 more rows
…
